…
``` r
litters_df = janitor::clean_names(litters_df)
##clean_names这个命令在janitor package下边，这里我们只用一次，可以用“janitor：：”这个形式，当然也可以用library引入janitor包，然后直接用clean_names
#这里cleanname是因为原始的表，列表变量的名字含有特殊符号很不方便使用，可以用这个指令改变变量的名字
```

## Take a look at the data

``` r
litters_df
```

    ## # A tibble: 49 × 8
    ##    group litter_number   gd0_weight gd18_weight gd_of_birth pups_born_alive
    ##    <chr> <chr>                <dbl>       <dbl>       <dbl>           <dbl>
    ##  1 Con7  #85                   19.7        34.7          20               3
    ##  2 Con7  #1/2/95/2             27          42            19               8
    ##  3 Con7  #5/5/3/83/3-3         26          41.4          19               6
    ##  4 Con7  #5/4/2/95/2           28.5        44.1          19               5
    ##  5 Con7  #4/2/95/3-3           NA          NA            20               6
    ##  6 Con7  #2/2/95/3-2           NA          NA            20               6
    ##  7 Con7  #1/5/3/83/3-3/2       NA          NA            20               9
    ##  8 Con8  #3/83/3-3             NA          NA            20               9
    ##  9 Con8  #2/95/3               NA          NA            20               8
    ## 10 Con8  #3/5/2/2/95           28.5        NA            20               8
    ## # ℹ 39 more rows
    ## # ℹ 2 more variables: pups_dead_birth <dbl>, pups_survive <dbl>
…
``` r
#可以通过？read_excel来查看关于读取excel文件的各种不同选择，比如其中 range = “A1:F7"会读取在这个范围内的excel数据
```

Read in a SAS file. Which need the package “haven”and function
“read_sas”

``` r
library(haven)
pulse_df = read_sas("./data/public_pulse_data.sas7bdat")
pulse_df
```

    ## # A tibble: 1,087 × 7
    ##       ID   age Sex    BDIScore_BL BDIScore_01m BDIScore_06m BDIScore_12m
    ##    <dbl> <dbl> <chr>        <dbl>        <dbl>        <dbl>        <dbl>
    ##  1 10003  48.0 male             7            1            2            0
    ##  2 10015  72.5 male             6           NA           NA           NA
    ##  3 10022  58.5 male            14            3            8           NA
    ##  4 10026  72.7 male            20            6           18           16
    ##  5 10035  60.4 male             4            0            1            2
    ##  6 10050  84.7 male             2           10           12            8
    ##  7 10078  31.3 male             4            0           NA           NA
    ##  8 10088  56.9 male             5           NA            0            2
    ##  9 10091  76.0 male             0            3            4            0
    ## 10 10092  74.2 female          10            2           11            6
    ## # ℹ 1,077 more rows
…
``` r
litters_readr
```

    ## # A tibble: 49 × 8
    ##    Group `Litter Number` `GD0 weight` `GD18 weight` `GD of Birth`
    ##    <chr> <chr>                  <dbl>         <dbl>         <dbl>
    ##  1 Con7  #85                     19.7          34.7            20
    ##  2 Con7  #1/2/95/2               27            42              19
    ##  3 Con7  #5/5/3/83/3-3           26            41.4            19
    ##  4 Con7  #5/4/2/95/2             28.5          44.1            19
    ##  5 Con7  #4/2/95/3-3             NA            NA              20
    ##  6 Con7  #2/2/95/3-2             NA            NA              20
    ##  7 Con7  #1/5/3/83/3-3/2         NA            NA              20
    ##  8 Con8  #3/83/3-3               NA            NA              20
    ##  9 Con8  #2/95/3                 NA            NA              20
    ## 10 Con8  #3/5/2/2/95             28.5          NA              20
    ## # ℹ 39 more rows
    ## # ℹ 3 more variables: `Pups born alive` <dbl>, `Pups dead @ birth` <dbl>,
    ## #   `Pups survive` <dbl>
…
